/* XPM */
static char * C:\Users\Lucky\Desktop\code\cub3d\textures\dickbutt_xpm[] = {
"200 180 47 1",
" 	c None",
".	c #000000",
"+	c #0F0F0F",
"@	c #3D3D3D",
"#	c #5F5F5F",
"$	c #898989",
"%	c #AFAFAF",
"&	c #C8C8C8",
"*	c #929292",
"=	c #6A6A6A",
"-	c #444444",
";	c #212121",
">	c #141414",
",	c #040404",
"'	c #707070",
")	c #FBFBFB",
"!	c #FEFEFE",
"~	c #F2F2F2",
"{	c #C1C1C1",
"]	c #797979",
"^	c #7F7F7F",
"/	c #E9E9E9",
"(	c #FFFFFF",
"_	c #080808",
":	c #CFCFCF",
"<	c #2C2C2C",
"[	c #F8F8F8",
"}	c #292929",
"|	c #B8B8B8",
"1	c #D9D9D9",
"2	c #474747",
"3	c #F4F4F4",
"4	c #353535",
"5	c #E0E0E0",
"6	c #9A9A9A",
"7	c #1B1B1B",
"8	c #333333",
"9	c #A9A9A9",
"0	c #595959",
"a	c #A3A3A3",
"b	c #090909",
"c	c #E4E4E4",
"d	c #0D0D0D",
"e	c #525252",
"f	c #909090",
"g	c #9D9D9D",
"h	c #646464",
"                                                                                                                                                                                                        ",
"                                                                                                                                                                                                        ",
"                                                                                                                                                                                                        ",
"                                                                                                                                                                                                        ",
"                                                                                                                                                                                                        ",
"                                                                                                                                                                                                        ",
"                                                                                                                                                                                                        ",
"                                                                                                                                                                                                        ",
"                                                                                                                                                                                                        ",
"                                                                                                                                                                                                        ",
"                                                                                                                                                                                                        ",
"                                                                                                                                                                                                        ",
"                                                                                                                                                                                                        ",
"                                                                                                                                                                                                        ",
"                                                                                                                                                                                                        ",
"                                                                                                                                                                                                        ",
"                                                                                                                                                                                                        ",
"                                                                                                                                                                                                        ",
"                                                                                                                                                                                                        ",
"                                                                                                                                                                                                        ",
"                                                                                                                                                                                                        ",
"                                                                                                                                                                                                        ",
"                                                                                                                                                                                                        ",
"                                                                                                                                                                                                        ",
"                                                                                                                                                                                                        ",
"                                                                                                                                                                                                        ",
"                                                                                                                                                                                                        ",
"                                                                                                                                                                                                        ",
"                                                                                                                                                                                                        ",
"                                                                                                                                                                                                        ",
"                                                                                                                                                                                                        ",
"                                                                                                                                                                                                        ",
"                                                                                                                                                                                                        ",
"                                                                                                                                                                                                        ",
"                                                                       ....                                                                                                                             ",
"                                                                   ................                                                                                                                     ",
"                                                                ......................                                                                                                                  ",
"                                                              .....+@#$%&&%*=-;+>+,....                                                                                                                 ",
"                                                             ...+'&)!!!!!!!!!!!!!!~{]>...                                                                                                               ",
"                                                           ...+^/((((((((!(((((((((((~^_..                                                                                                              ",
"                                                          ..,=/!!!!!!!!!!!!!!!!!!!!!!!!:;..                                                                                                             ",
"                                                        ...<&!((!((!((((!(!((!((!((((!((/<..                                                                                                            ",
"                                                       ...'[!!!!!(!!!!!!!!!!!!(!!!!!!!!(!/}..                                                                                                           ",
"                                                      ..>|((((((((((((((((((((((((((((((((1>..                                                                                                          ",
"                                                     ..}1!!!!!!!!!!!!!!!!!!!!!!!!!!!!!!!!!!|,.                                                                                                          ",
"                                                    ..@/((((((((((((((((((((((((((((((((((((^..                                                                                                         ",
"                                                   ..23((((((((!((((((((((((!((((((((((((!(()4..                                                                                                        ",
"                                                  ..23(((((!((((((((((((!((((((((((((!((!((((1_.                                                                                                        ",
"                                                 ..@3!((!((!!(((!(!((!((!!(((!(!((!((!!(!(!((!=..                                                                                                       ",
"                                                ..}~(!!(!!!!!!!!!(!!(!!!!!!!!!(!!(!!!!!(!!!!!!5,.                                                                                                       ",
"                                               ...{!!!!(!!!!!!(!!!!!(!!!!!!(!!!!!(!!!!!(!!!(!!!-..                                                                                                      ",
"                                              ..._~!!!!!!!!!!!!!!!!!!!!!!!!!!!!!!!!!!!!!!!!!!!!6..                                                                                                      ",
"                                              ....#~((((((((((((((((((((((((((((((((((((!((((((1..                                                                                                      ",
"                                             ......7$3!!!!!!!!!!!!!!!!!!!!!!!!!!![)!!!!!!!!!!!!!;..                                                                                                     ",
"                                            .........;&((((((!((!(((((((((!(/%^27__}'1((!(((((((#..                                                                                                     ",
"                                          ............+1!((!!!((!(!!(!((!~*@,........,'[!(!(!((!$..                                                                                                     ",
"                                         ..........7...8)((((((((((((((!9>.............@/(((((((%..                                                                                                     ",
"                                        ..........0!%>..a!!!!!!!!!!!!!!6............'2..@[!!!!!!&..                                                                                                     ",
"                                       ...........^((:b.@!((((((((((((6............8)!]..^((((((1..                                                                                                     ",
"                                      ............9(((]..5(()/!!(((((|,............$(()-.bc(((((c..                                                                                                     ",
"                                      ...........d/(((:..6~$;,$(((((5>.............1(((5d.$(((((/..                                                                                                     ",
"                                     ............^!!!(:..7d...6!!!(!e.............2!(!((#.2(!!(!/,.                                                                                                     ",
"                                     ...........2)!(((^.....7%!!(((:.............75!!!!(].;!(!(!/,.                                                                                                     ",
"                                     ..........e3(!!!|_....2/!(!!!!6............>:!!(!!!2.;(!!!!c..                                                                                                     ",
"                                     .......b2a)!!!/',....=[!!!!!!!6...........b:!!!!!!1_.-!!!!!c..                                                                                                     ",
"                                      ......%((((/^+....,f!((((((((&...........6(((((()-..$(((((1..                                                                                                     ",
"                                      ......b#*f0d....._9!!!!!!!!!!)}...;#]^^^9!!!!!!~e.._5!!!!!:..                                                                                                     ",
"                                      .................9(((((!((!(((%...=!!((!(((((!%;...](((((({..                                                                                                     ",
"                                      ....+;>ddd+;=,..=!!((128]~!(!!!=...][((!(!!cf<....2[!(!((!|..                                                                                                     ",
"                                      ...^!(((((((5...1((((#...}c(((()0...}$&:a'<......'[(((((((9..                                                                                                     ",
"                                      ..d[!!!!!!!!|.../!!!!{>...@)!!!!)$_...........,e&!!!!!!!!!g..                                                                                                     ",
"                                      ..-(((((((((a...]!((((g....&((((((1#d....._}06c(((((((((((f..                                                                                                     ",
"                                     ...'((((((((({....8]**]@...,1((((((((3&99|1~!(((((((!((((((^..                                                                                                     ",
"                                     ...6((((((((()2............^!(((((((((((((((((!5%f1!(((((((]..                                                                                                     ",
"                                     ...{((!!(!(!(!3'_........b*!!(!(!!(!(!(!!!(/%h;...7~!!(!!(!=..                                                                                                     ",
"                                     ...5!(!!!!!!!!((cfe;b,_>01!(((!(!!)~:|$#2@;........%!!!(!(!#..                                                                                                     ",
"                                     ...[!!!!(!!!(!!!!!!!![![/:|a6f^#-}+...............}/!!(!!!!e..                                                                                                     ",
"                                     ...&!!cghe'*9%9ag6$]#2}+....................+<e=^%[!!!!!!!!2..                                              ...                                                    ",
"                                     ...+2<,................................,<'%5)((((((!(((((((-..                                            .......                                                  ",
"                                    ..............................b++>72f|&:/!!!!!!!!!!!!!!!!!!!@..                                           ....;<_...                                                ",
"                                    ........>>.........+;@#f|9f*|/[)))!(((!((!((((((((((!(((((((4..                                          ...}1!!/$d..                                               ",
"                                    ...6c1:/!![/c115c~[!!((!!!((!(!!(!((!!!((!(!!(!((!!(!(!(!((!4..                                          ...:((!((1;..                                              ",
"                                    ..@!((((((((((((((((((((((((((((((((((((((((((((((((((((((((<..                                          ..e!((((((1>.                                              ",
"                                    ..h!!!!!!!!!!!!!!!!!!!!!!!!!!!!!!!!!!!!!!!!!!!!!!!!!!!!!!!!!<..                                         ...|!!!!!!!!9..                                             ",
"                                    ..0(((((((((((((((((((((((((((((((((((((((((((((((((((((((((4..                                         ..7[((((((((!4.                                             ",
"                                    ..@(((((((((((!((((((((((((!((((((((((((!((((((((((((!((((((4..                                         ..h((((((((((g..                                            ",
"                                    ..>)((((((((((((((((((((((((((((((((((((((((((((((((!(((((((@..                                        ...|((((((((((c..                                            ",
"                                   ..../(((!!(!(!(!!!(!(!!(!(!(!!!(!(!!(!(!(!!!(!(!!(!((!!!(!!(!2..                                        ..+3(!!(!!!((([b.                                            ",
"                                   ....1!!(!!!!!!!!(((!(!!!!!!!!(((!(!!!!!!!!(((!(!!!!!(!!!!(!(!e..                                        ..0!!(!(!!!(!(3_.                                            ",
"                                   ....&!!!!!(!!!(!!!!!!!!(!!!(!!!!!!!!(!!!(!!!!!!!!(!!!!!!(!!!!h..                                       ...%!(!!!!!!(!!&..                                            ",
"                                   ....{!!!!!!!!!!!!!!!!!!!!!!!!!!!!!!!!!!!!!!!!!!!!!!!!!!!!!!!!]..                                       ..7[!!!!!!!!!!!^..                                            ",
"                                   ....{((((((((((((((((((((((((((((((((((((((((((((((((!((((((($..                                      ...*((((((((((((2..                                            ",
"                                   ....{!!!!!!!!!!!!!!!!!!!!!!!!!!!!!!!!!!!!!!!!!!!!!!!!!!!!!!!!a..                                      ..}[!!!!!!!!!!!!;..                                            ",
"                                    ...{(!((((((!((!(((((((((!((!(((((((((!((!(/:)(((!*^~((((((({...                                    ...9!((((((((!(([_.                                             ",
"                                    ...&!!(!((!!!((!(!!(!((!!!((!(!!(!((!!!((!(8.@3((g..@)!(!((!c...                                    ..>[!(!(!((!!^4/1..                                             ",
"                                    ...1!!!!(!!!!!(!(!!!!(!!!!!(!(!!!!(!!!!!(!(>..$(!2...{!(!!(!)+..                                   ...h!!(!(!!(!~_.|a..                                             ",
"                                    ...5!!!!!!!!!!!!!!!!!!!!!!!!!!!!!!!!!!!!!!!e..4!!@...*!!!!!!!@..                                   ..,1!!!!!!!!!!^h30.                                              ",
"                                    .../(((((((((((((((((((((((((((((((((((((((a..d[(0...*(((((((=..                                   ..=!((((((((((((/b.                                              ",
"                                    ..,3(((((((((((((((((((((((((((((((((((((((%.../(^...g(((((((g...                                 ..>/(((((((((((((^..                                              ",
"                                    ..b[!((!((!(!!!((!!(!((!(!!!((!!(!((!(!!!((6...5(a...6((((!((1...                                 ..*(((!!(((:^{!!!;.                                               ",
"                                    ..d[(((!(!!(!!(((!!(!(!!(!!(((!!(!(!!(!!(((f...5!{...$(((!!!(!7..                                ..;[(((!((((4..:!&..                                               ",
"                                    ..d[!!(!((((!!((((!(!((((!!((((!(!((((!!(((f...c(&...^!(!!(!(!e..                               ...6!(((((!(!=.b/!h..                                               ",
"                                     .b[!!!!!!!!!(!!!!!!!!!!!!(!!!!!!!!!!!!(!!!f..,/!1...'!!!!!!!!^...            .............    ...@)!!!!!!!!![|:!%,.                                                ",
"                                     ..~!!!!!!!!!!!!!!!!!!!!!!!!!!!!!!!!!!!!!!!f..b3!c...=!(!!!!!!a...         ......................>1!!(!!!!!(!!!!|b..                                                ",
"                                     ..1(((((((((((((((((((((((((((((((((((((((f..d[(/...h((((((((&...       ...._8=6aa%{::{a#b.....,|((((((!((((((9_..                                                 ",
"                                     ..{(((((!!(((((((((((!!(((((((((((!!((((((6..>!!3...#(((((!((/....    ...}^{~(((((((!((((1>....*(!((((!((((((9_..                                                  ",
"                                     ..6((((((((!((((((((((((!((((((((((((!((((6..7(()...0((((((((!d........-|)((((((((((((((((#...h!((((((((((((9,...                                                  ",
"                                     ..=!!(!((!!!((!(!!(!((!!!((!(!!(!((!!!((!(a..;((!,..e!(!((!(((8......4{!(((!(!(!(!((!(((![;..<3((!(((!(!(!(%,....                                                  ",
"                                      .8!!!!(!!!!!(!(!!!!(!!!!!(!(!!!!(!!!!!(!(%..}(!!b..e!(!!(!(!!0.....')(!(!!16:!!(!!(!(!!30...{!!(!(!!!!!(!|_.....    ....                                          ",
"                                      .,/!!!!!!!!!!!!!!!!!!!!!!!!!!!!!!!!!!!!!!|..8!!!d..e!!!!!!!!($....]!!!!!![+..-{)!!!!![9}...;!!!!!!!(!!!!!7...............                                         ",
"                                      ..9((((((((((((((((((((((((((((((((((((((|..8(((d..2(((((((((:...@)(((((((]....}=$f]e>....._a[(((((((((((@.......;$&:68...                                        ",
"                                      ..0(((((((((((((((((((((((((((((((((((((({..8(((>..2(((((((((!;..g((!5{c((!f,................+2$:)(((((((/0_...7f[(((([0..                                        ",
"                                      ..d3(!((!(!!!((!!(!((!(!!!((!!(!((!(!!!((&..8((!>..2((((!((!((h..9((3_.bc((!e....................7=&!(!!(((~{9|3(((!!(([<.                                        ",
"                                       ..9(!(!!(!!(((!!(!(!!(!!(((!!(!(!!(!!(((1..8(!!d..2(((!!!(!((a..^((!%h^3(()e......,<0]^=2;.........4%!((((!!!(![[(!(((('.                                        ",
"                                       ..2(!((((!!((((!(!((((!!((((!(!((((!!(((1..}(((d..e!(!!(!(!((~;.f(!!(!(!!&@....}]|~(!(((((/|]@_......@:!(!!(!(9dd*!(!(57                                         ",
"                                       .._~!!!!!!(!!!!!!!!!!!!(!!!!!!!!!!!!(!!!5..;!!!b..0!!!!!!!!!!!~:[!!!!!!5e...+':!!!!!!!!!!!!!!!~%#>...._^)!!!!!h...@a{^+.                                         ",
"                                        ..a!!!!!!!!!!!!!!!!!!!!!!!!!!!!!!!!!!!!c..>!!!,..=!(!!!!!!(!!!!!(!!!!:>..b^~!(!!!!!!(!!!!!(!!!!![%2,...-/!!!!&b........                                         ",
"                                        ..0((((((((((((((((((((((((((((((((((((/..d[(3...^(((((((((((!(((((((-..7:!((((((((((((!((((((((((!1#,..;1(((({<.......                                         ",
"                                        ..+3(!!(((((((((((!!(((((((((((!!((((((/.../!/...*(((((!((((!(((((((!;.>1!(((((((!((((!(((((((!((((!!{7..71!((()|#7.....                                        ",
"                                         ..%((((!((((((((((((!((((((((((((!((((/...&(1...9(((((((((((((((((((|6c((((((((((((((((((((((((((((((5}..4)(((((()5%$h;..                                      ",
"                                         ..e((!!!((!(!!(!((!!!((!(!!(!((!!!((!(5...9({...9!(!((!(((!(!(!(!((!(((!(!(!(!((!(((!(!(!(!((!(((!(!(!5>..9(((!(!(!(!(!a,                                      ",
"                                         .._c!!!!!(!(!!!!(!!!!!(!(!!!!(!!!!!(!(1...f!:...2)(!!(!(!!!!!(!(!!(!(!!!!!(!(!!(!(!!!!!(!(!!(!(!!!!!(!(%..<)!!!!!(!(!!(!#.                                     ",
"                                          ..]!!!!!!!!!!!!!!!!!!!!!!!!!!!!!!!!!!{...$!);...0/!!!!!!(!!!!!!!!!!!!(!!!!!!!!!!!!(!!!!!!!!!!!!(!!!!!!!2..9!(!!!!!!!!!!g.                                     ",
"                                          ..>~(((((((((((((((((((((((((((((((((6...a(({b...d'1((((((((((((((((((((((((((({f~((((((((((((((((((((({..}3(((((((((((%..                                    ",
"                                           ..f((((((((((((((((((((((((((((((((~}..dc(((:2....,e:((((((((((((((((((((((((c_.h(((((((((((((((((((((!}..ec(((((((((($.                                     ",
"                                           ..7[(!!!((!!(!((!(!!!((!!(!((!(!!!!0...a((!((!:]}...ba!(((!!((((!((!(((!!((((:.+|(((!!((((!((!(((!!((((]...,@*1c15!!1$b.                                     ",
"                                            ..f(!!(((!!(!(!!(!!(((!!(!(!!(!!(*...^!(!!((!((!1=...^!((!((((!!!(!(((!((((!):~!(((!((((!!!(!(((!((((!%..........7>...                                      ",
"                                            ..73!!((((!(!((((!!((((!(!((((!!:_..h!!(((%20|!(!!0...'!(((!(!!(!(!(((((!(!!(!(!(((((!(!!(!(!(((((!(!!1..............                                       ",
"                                             ..$!(!!!!!!!!!!!!(!!!!!!!!!!!!)@..-)!!!!!4...#/!!h....6!!!!!!!!!!!!!!!!!!!!!!!!!!!!!!!!!!!!!!!!!!!!!!~............                                         ",
"                                             ..d/!!!!!!!!!!!!!!!!!!!!!!!!!!|..7/!!60)!$....7]0.....;!!!!(!!!!!!(!!!!!(!!!!!!(!!!!!(!!!!!!(!!!!!(!!~...                                                  ",
"                                              ..=((((((((((((((((((((((((((#..6((1,.9([;...........4(!((((((((((((!((((((((((((!((((((((((((!(((((/..                                                   ",
"                                              ..,:((((((((!!(((((((((((!!((4..1((f..4)~>.........;'/!(((((((!((((!(((((/$%((((!(((((((!((((!((((((:..                                                   ",
"                                               ..@)((((((((((!((((((((((((!@..01/<...<}...21~c5c~!(((((((((((((((((((((9.>[(((((((((((((((((((((((a..                                                   ",
"                                               ...g!(!!(!((!!!((!(!!(!((!!!$.............+/(!((!(((!(!(!(!((!(((!(!(!(!!15(((!(!(!(!((!(((!(!(!(!!#..                                                   ",
"                                                ..>c(!!!!(!!!!!(!(!!!!(!!!!38............#!(!!(!(!!!!!(!(!!(!(!!!!!(!(!!(!(!!!!!(!(!!(!(!!!!!(!(!1_..                                                   ",
"                                                 ..e!!!!!!!!!!!!!!!!!!!!!!!!/@...<=2.....{!!!!!!!!(!!!!!!!!!!!!(!!!!!!!!!!!!(!!!!!!!!!!!!(!!!!!!!2..                                                    ",
"                                                 ...6(((((((((((((((((((((((()%6:!(!f>.>$!((((((((((((((((((((((((((([3(((((((((((((((((((((((((g...                                                    ",
"                                                  ..b&((((((((((((((((((((((((((((((([/[((((((((((((((((((((((((((((|>b'!((((((((((((((((((((((1d..                                                     ",
"                                                   ..75(!((!(!!!((!!(!((!(!!!((!!(!((!((!!((((!((!(((!!((((!((!(((!!|,..:((!(((!!((((!((!(((!![4..                                                      ",
"                                                    ..;5!(!!(!!(((!!(!(!!(!!(((!!(!(!!((!((((!!!(!(((!((((!!!(!(((!(!:*{!!(!(((!((((!!!(!(((!!=..                                                       ",
"                                                    ...7:((((!!((((!(!((((!!((((!(!(((((((!(!!(!(!(((((!(!!(!(!(((((!(!!(!(!(((((!(!!(!(!((((g...                                                       ",
"                                                     ...+|!!!!(!!!!!!!!!!!!(!!!!!!!!!!!!!!!!!!!!!!!!!!!!!!!!!!!!!!!!!!!!!!!!!!!!!!!!!!!!!!!!{_..                                                        ",
"                                                      ....^)!!!!!!!!!!!!!!!!!!!!!!!!!!!!!!!(!!!!!!(!!!!!(!!!!!!(!!!!!(!!!!!!(!!!!!(!!!!!!(!&>..                                                         ",
"                                                       ....#)(((((((((((((((((((((((((((!((((((((((((!((((((((((((!((((((((((((!((((((((((%d..                                                          ",
"                                                        ....e3(((((((((!!(((((((((((!!(!(((((((!((((!(((((((!((((!((((((c='1((!(((((((!(!$,..                                                           ",
"                                                          ...<:(((((((((((!(((((((((((((((((((((((((((((((((((((((((((((e..0(((((((((((30...                                                            ",
"                                                           ...,#1!!!(!((!!!((!(!!(!((!!(!(!(!((!(((!(!(!(!((!(((!(!(!(!(:''/(!(!(!(!((:}...                                                             ",
"                                                            ....,e{!!!(!!!!!(!(!!!!(!!!!!(!(!!(!(!!!!!(!(!!(!(!!!!!(!(!!(!(!!!!!(!(![$_...                                                              ",
"                                                              .....86~!!!!!!!!!!!!!!!!!!!!!!!!!!!!(!!!!!!!!!!!!(!!!!!!!!!!!!(!!!!!!|<....                                                               ",
"                                                                .....dh{[((((((((((((((((((((((((((((((((((((((((((((((((((((((()|-.....                                                                ",
"                                                                  ......>e$|c!(((((((((((((((((((((((((((((((((((3{&~((((((((~{];.....                                                                  ",
"                                                                   ..........;h%~(!((!((!!((((!((!(((!!((((!((!(~;.._<20##02}_......                                                                    ",
"                                                                     ...........b-$&[!((!((((!!!(!(((!/|$#e$)(!(a.................                                                                      ",
"                                                                      ...............dd<h%c)!!(!~&6'->......|(!($...............                                                                        ",
"                                                                      .....................d}447,...........^!!!*.........                                                                              ",
"                                                                      ...$c8................................=!!(9...                                                                                    ",
"                                                                      ..#!(0..        ............        ..h((({...                                                                                    ",
"                                                                      ._5(!}..                            ..#(((:...                                                                                    ",
"                                                                      .0!(:...                            ..h(((5...                                                                                    ",
"                                                                     ..|!!]...                            ..h(((c...                                                                                    ",
"                                                                     .d3!!}..                             ..=(!!1...                                                                                    ",
"                                                                    ..e!!c...                  ..         ..'!!(|..                                                                                     ",
"                                                                    ..6((|...                .......      ..=(((6..                                                                                     ",
"                                                      .             ..5((=..                 ....4<.........0(((^..                                                                                     ",
"                                                    ......         ..}!(/d..                 ..../!97.......2(!('..                                                                                     ",
"                                                    ....,...       ..'(!$...                  ...1((/e......e(!(=..                                                                                     ",
"                                                    ...'!|7..      ..{((@..                    ..'!((!a>....^(!('..                                                                                     ",
"                                                     ..%!!58..    ..>[!~_..                    ..,|!!!!/];_@/!!!$..                                                                                     ",
"                                                     ..]!!!~2.......=!!a..                      ..b%!!!!(!3!!!!(a..                                                                                     ",
"                                                      .b:((([#......{((2..                       ..,$!((((((((((%..                                                                                     ",
"                                                      ..}/!!()]....<!(5,.                         ...03(((((!(((9..                                                                                     ",
"                                                       ..8/((!!ad..|((]..                          ...85(((((((($..                                                                                     ",
"                                                        ..<c!!((5^%!(~>..                           ...>|!((!(((=..                                                                                     ",
"                                                         ..;:!!(!(!!!$..                             ....h/(!(!!-..                                                                                     ",
"                                                          ..da!!!!!!/>..                               ...79!!!~b..                                                                                     ",
"                                                           ...=)(((!#..                                  ...@9&e...                                                                                     ",
"                                                            ...03(!$...                                   .........                                                                                     ",
"                                                             ...}^e...                                      ......                                                                                      ",
"                                                               ......                                         ...                                                                                       ",
"                                                                ....                                                                                                                                    "};
