/* XPM */
static char * C:\Users\Lucky\Desktop\code\cub3d\textures\dickbutt_transparent2_crop_h_xpm[] = {
"195 147 47 1",
" 	c None",
".	c #FFFFFF",
"+	c #FEFEFE",
"@	c #000000",
"#	c #FBFBFB",
"$	c #F4F4F4",
"%	c #080808",
"&	c #F8F8F8",
"*	c #0D0D0D",
"=	c #141414",
"-	c #D9D9D9",
";	c #E4E4E4",
">	c #0F0F0F",
",	c #F2F2F2",
"'	c #E9E9E9",
")	c #040404",
"!	c #090909",
"~	c #212121",
"{	c #5F5F5F",
"]	c #C1C1C1",
"^	c #E0E0E0",
"/	c #6A6A6A",
"(	c #A9A9A9",
"_	c #7F7F7F",
":	c #2C2C2C",
"<	c #9A9A9A",
"[	c #909090",
"}	c #1B1B1B",
"|	c #CFCFCF",
"1	c #B8B8B8",
"2	c #474747",
"3	c #595959",
"4	c #525252",
"5	c #292929",
"6	c #353535",
"7	c #3D3D3D",
"8	c #898989",
"9	c #929292",
"0	c #A3A3A3",
"a	c #AFAFAF",
"b	c #C8C8C8",
"c	c #797979",
"d	c #707070",
"e	c #9D9D9D",
"f	c #333333",
"g	c #444444",
"h	c #646464",
"                                                                     @@@@                                                                                                                          ",
"                                                                 @@@@@@@@@@@@@@@@                                                                                                                  ",
"                                                              @@@@@@@@@@@@@@@@@@@@@@                                                                                                               ",
"                                                            @@@@@>7{8abba9/g~>=>)@@@@                                                                                                              ",
"                                                           @@@>db#++++++++++++++,]c=@@@                                                                                                            ",
"                                                         @@@>_'........+...........,_%@@                                                                                                           ",
"                                                        @@)/'++++++++++++++++++++++++|~@@                                                                                                          ",
"                                                      @@@:b+..+..+....+.+..+..+....+..':@@                                                                                                         ",
"                                                     @@@d&+++++.++++++++++++.++++++++.+'5@@                                                                                                        ",
"                                                    @@=1................................-=@@                                                                                                       ",
"                                                   @@5-++++++++++++++++++++++++++++++++++1)@                                                                                                       ",
"                                                  @@7'...................................._@@                                                                                                      ",
"                                                 @@2$........+............+............+..#6@@                                                                                                     ",
"                                                @@2$.....+............+............+..+....-%@                                                                                                     ",
"                                               @@7$+..+..++...+.+..+..++...+.+..+..++.+.+..+/@@                                                                                                    ",
"                                              @@5,.++.+++++++++.++.+++++++++.++.+++++.++++++^)@                                                                                                    ",
"                                             @@@]++++.++++++.+++++.++++++.+++++.+++++.+++.+++g@@                                                                                                   ",
"                                            @@@%,++++++++++++++++++++++++++++++++++++++++++++<@@                                                                                                   ",
"                                            @@@@{,....................................+......-@@                                                                                                   ",
"                                           @@@@@@}8$+++++++++++++++++++++++++++&#+++++++++++++~@@                                                                                                  ",
"                                          @@@@@@@@@~b......+..+.........+.'a_2}%%5d-..+.......{@@                                                                                                  ",
"                                        @@@@@@@@@@@@>-+..+++..+.++.+..+,97)@@@@@@@@)d&+.+.+..+8@@                                                                                                  ",
"                                       @@@@@@@@@@}@@@f#..............+(=@@@@@@@@@@@@@7'.......a@@                                                                                                  ",
"                                      @@@@@@@@@@3+a=@@0++++++++++++++<@@@@@@@@@@@@d2@@7&++++++b@@                                                                                                  ",
"                                     @@@@@@@@@@@_..|!@7+............<@@@@@@@@@@@@f#+c@@_......-@@                                                                                                  ",
"                                    @@@@@@@@@@@@(...c@@^..#'++.....1)@@@@@@@@@@@@8..#g@!;.....;@@                                                                                                  ",
"                                    @@@@@@@@@@@*'...|@@<,8~)8.....^=@@@@@@@@@@@@@-...^*@8.....'@@                                                                                                  ",
"                                   @@@@@@@@@@@@_+++.|@@}*@@@<+++.+4@@@@@@@@@@@@@2+.+..{@2.++.+')@                                                                                                  ",
"                                   @@@@@@@@@@@2#+..._@@@@@}a++...|@@@@@@@@@@@@@}^++++.c@~+.+.+')@                                                                                                  ",
"                                   @@@@@@@@@@4$.+++1%@@@@2'+.++++<@@@@@@@@@@@@=|++.+++2@~.++++;@@                                                                                                  ",
"                                   @@@@@@@!20#+++'d)@@@@/&+++++++<@@@@@@@@@@@!|++++++-%@g+++++;@@                                                                                                  ",
"                                    @@@@@@a....'_>@@@@)[+........b@@@@@@@@@@@<......#g@@8.....-@@                                                                                                  ",
"                                    @@@@@@!{9[3*@@@@@%(++++++++++#5@@@~{c___(++++++,4@@%^+++++|@@                                                                                                  ",
"                                    @@@@@@@@@@@@@@@@@(.....+..+...a@@@/++..+.....+a~@@@c......]@@                                                                                                  ",
"                                    @@@@>~=***>~/)@@/++..-2fc,+.+++/@@@c&..+.++;[:@@@@2&+.+..+1@@                                                                                                  ",
"                                    @@@_+.......^@@@-....{@@@5;....#3@@@58b|0d:@@@@@@d&.......(@@                                                                                                  ",
"                                    @@*&++++++++1@@@'++++]=@@@7#++++#8%@@@@@@@@@@@)4b+++++++++e@@                                                                                                  ",
"                                    @@g.........0@@@c+....e@@@@b......-{*@@@@@%53<;...........[@@                                                                                                  ",
"                                   @@@d.........]@@@@fc99c7@@@)-........$b((1-,+.......+......_@@                                                                                                  ",
"                                   @@@<.........#2@@@@@@@@@@@@_+.................+^a[-+.......c@@                                                                                                  ",
"                                   @@@]..++.+.+.+$d%@@@@@@@@!9++.+.++.+.+.+++.'ah~@@@},++.++.+/@@                                                                                                  ",
"                                   @@@^+.++++++++..;[4~!)%=3-+...+.++#,|18{27~@@@@@@@@a+++.+.+{@@                                                                                                  ",
"                                   @@@&++++.+++.++++++++&+&'|10<[_{g5>@@@@@@@@@@@@@@@5'++.++++4@@                                                                                                  ",
"                                   @@@b++;eh4d9(a(0e<8c{25>@@@@@@@@@@@@@@@@@@@@>:4/_a&++++++++2@@                                              @@@                                                 ",
"                                   @@@>2:)@@@@@@@@@@@@@@@@@@@@@@@@@@@@@@@@):da^#......+.......g@@                                            @@@@@@@                                               ",
"                                  @@@@@@@@@@@@@@@@@@@@@@@@@@@@@@!>>=}2[1b|'+++++++++++++++++++7@@                                           @@@@~:%@@@                                             ",
"                                  @@@@@@@@==@@@@@@@@@>~7{[1([91'&###+...+..+..........+.......6@@                                          @@@5-++'8*@@                                            ",
"                                  @@@<;-|'++&';--^;,&++..+++..+.++.+..+++..+.++.+..++.+.+.+..+6@@                                          @@@|..+..-~@@                                           ",
"                                  @@7+........................................................:@@                                          @@4+......-=@                                           ",
"                                  @@h+++++++++++++++++++++++++++++++++++++++++++++++++++++++++:@@                                         @@@1++++++++(@@                                          ",
"                                  @@3.........................................................6@@                                         @@}&........+6@                                          ",
"                                  @@7...........+............+............+............+......6@@                                         @@h..........e@@                                         ",
"                                  @@=#................................................+.......7@@                                        @@@1..........;@@                                         ",
"                                 @@@@'...++.+.+.+++.+.++.+.+.+++.+.++.+.+.+++.+.++.+..+++.++.+2@@                                        @@>$.++.+++...&!@                                         ",
"                                 @@@@-++.++++++++...+.++++++++...+.++++++++...+.+++++.++++.+.+4@@                                        @@3++.+.+++.+.$%@                                         ",
"                                 @@@@b+++++.+++.++++++++.+++.++++++++.+++.++++++++.++++++.++++h@@                                       @@@a+.++++++.++b@@                                         ",
"                                 @@@@]++++++++++++++++++++++++++++++++++++++++++++++++++++++++c@@                                       @@}&+++++++++++_@@                                         ",
"                                 @@@@]................................................+.......8@@                                      @@@9............2@@                                         ",
"                                 @@@@]++++++++++++++++++++++++++++++++++++++++++++++++++++++++0@@                                      @@5&++++++++++++~@@                                         ",
"                                  @@@].+......+..+.........+..+.........+..+.'|#...+9_,.......]@@@                                    @@@(+........+..&%@                                          ",
"                                  @@@b++.+..+++..+.++.+..+++..+.++.+..+++..+.f@7$..e@@7#+.+..+;@@@                                    @@=&+.+.+..++_6'-@@                                          ",
"                                  @@@-++++.+++++.+.++++.+++++.+.++++.+++++.+.=@@8.+2@@@]+.++.+#>@@                                   @@@h++.+.++.+,%@10@@                                          ",
"                                  @@@^+++++++++++++++++++++++++++++++++++++++4@@6++7@@@9+++++++7@@                                   @@)-++++++++++_h$3@                                           ",
"                                  @@@'.......................................0@@*&.3@@@9......./@@                                   @@/+............'!@                                           ",
"                                  @@)$.......................................a@@@'._@@@e.......e@@@                                 @@='............._@@                                           ",
"                                  @@!&+..+..+.+++..++.+..+.+++..++.+..+.+++..<@@@^.0@@@<....+..-@@@                                 @@9...++...|_]+++~@                                            ",
"                                  @@*&...+.++.++...++.+.++.++...++.+.++.++...[@@@^+]@@@8...+++.+}@@                                @@~&...+....6@@|+b@@                                            ",
"                                  @@*&++.+....++....+.+....++....+.+....++...[@@@;.b@@@_+.++.+.+4@@                               @@@<+.....+.+/@!'+h@@                                            ",
"                                   @!&+++++++++.++++++++++++.++++++++++++.+++[@@)'+-@@@d++++++++_@@@            @@@@@@@@@@@@@    @@@7#+++++++++&1|+a)@                                             ",
"                                   @@,+++++++++++++++++++++++++++++++++++++++[@@!$+;@@@/+.++++++0@@@         @@@@@@@@@@@@@@@@@@@@@@=-++.+++++.++++1!@@                                             ",
"                                   @@-.......................................[@@*&.'@@@h........b@@@       @@@@%f/<00a]||]0{!@@@@@)1......+......(%@@                                              ",
"                                   @@].....++...........++...........++......<@@=++$@@@{.....+..'@@@@    @@@5_],.......+....-=@@@@9.+....+......(%@@                                               ",
"                                   @@<........+............+............+....<@@}..#@@@3........+*@@@@@@@@g1#................{@@@h+............()@@@                                               ",
"                                   @@/++.+..+++..+.++.+..+++..+.++.+..+++..+.0@@~..+)@@4+.+..+...f@@@@@@6]+...+.+.+.+..+...+&~@@:$..+...+.+.+.a)@@@@                                               ",
"                                    @f++++.+++++.+.++++.+++++.+.++++.+++++.+.a@@5.++!@@4+.++.+.++3@@@@@d#.+.++-<|++.++.+.++$3@@@]++.+.+++++.+1%@@@@@    @@@@                                       ",
"                                    @)'++++++++++++++++++++++++++++++++++++++1@@f+++*@@4++++++++.8@@@@c++++++&>@@g]#+++++&(5@@@~+++++++.+++++}@@@@@@@@@@@@@@@                                      ",
"                                    @@(......................................1@@f...*@@2.........|@@@7#.......c@@@@5/8[c4=@@@@@%0&...........7@@@@@@@~8b|<f@@@                                     ",
"                                    @@3......................................]@@f...=@@2.........+~@@e..+^];..+[)@@@@@@@@@@@@@@@@>28|#.......'3%@@@}[&....&3@@                                     ",
"                                    @@*$.+..+.+++..++.+..+.+++..++.+..+.+++..b@@f..+=@@2....+..+..h@@(..$%@!;..+4@@@@@@@@@@@@@@@@@@@@}/b+.++...,](1$...++..&:@                                     ",
"                                     @@(.+.++.++...++.+.++.++...++.+.++.++...-@@f.++*@@2...+++.+..0@@_..+ah_$..#4@@@@@@):3c_/2~@@@@@@@@@6a+....+++.+&&.+....d@                                     ",
"                                     @@2.+....++....+.+....++....+.+....++...-@@5...*@@4+.++.+.+..,~@[.++.+.++b7@@@@5c1,.+.....'1c7%@@@@@@7|+.++.+.(**9+.+.^}                                      ",
"                                     @@%,++++++.++++++++++++.++++++++++++.+++^@@~+++!@@3+++++++++++,|&++++++^4@@@>d|+++++++++++++++,a{=@@@@%_#+++++h@@@70]_>@                                      ",
"                                      @@0++++++++++++++++++++++++++++++++++++;@@=+++)@@/+.++++++.+++++.++++|=@@!_,+.++++++.+++++.+++++&a2)@@@g'++++b!@@@@@@@@                                      ",
"                                      @@3....................................'@@*&.$@@@_...........+.......g@@}|+............+..........+-{)@@~-....]:@@@@@@@                                      ",
"                                      @@>$.++...........++...........++......'@@@'+'@@@9.....+....+.......+~@=-+.......+....+.......+....++]}@@}-+...#1{}@@@@@                                     ",
"                                       @@a....+............+............+....'@@@b.-@@@(...................1<;..............................^5@@6#......#^a8h~@@                                   ",
"                                       @@4..+++..+.++.+..+++..+.++.+..+++..+.^@@@(.]@@@(+.+..+...+.+.+.+..+...+.+.+.+..+...+.+.+.+..+...+.+.+^=@@(...+.+.+.+.+0)                                   ",
"                                       @@%;+++++.+.++++.+++++.+.++++.+++++.+.-@@@[+|@@@2#.++.+.+++++.+.++.+.+++++.+.++.+.+++++.+.++.+.+++++.+.a@@:#+++++.+.++.+{@                                  ",
"                                        @@c++++++++++++++++++++++++++++++++++]@@@8+#~@@@3'++++++.++++++++++++.++++++++++++.++++++++++++.+++++++2@@(+.++++++++++e@                                  ",
"                                        @@=,.................................<@@@0..]!@@@*d-...........................][,.....................]@@5$...........a@@                                 ",
"                                         @@[................................,5@@*;...|2@@@@)4|........................;%@h.....................+5@@4;..........8@                                  ",
"                                         @@}&.+++..++.+..+.+++..++.+..+.++++3@@@0..+..+|c5@@@!0+...++....+..+...++....|@>1...++....+..+...++....c@@@)79-;-^++-8!@                                  ",
"                                          @@[.++...++.+.++.++...++.+.++.++.9@@@_+.++..+..+-/@@@_+..+....+++.+...+....+#|,+...+....+++.+...+....+a@@@@@@@@@@}=@@@                                   ",
"                                          @@}$++....+.+....++....+.+....++|%@@h++...a231+.++3@@@d+...+.++.+.+.....+.++.+.+.....+.++.+.+.....+.++-@@@@@@@@@@@@@@                                    ",
"                                           @@8+.++++++++++++.++++++++++++#7@@g#+++++6@@@{'++h@@@@<++++++++++++++++++++++++++++++++++++++++++++++,@@@@@@@@@@@@                                      ",
"                                           @@*'++++++++++++++++++++++++++1@@}'++<3#+8@@@@}c3@@@@@~++++.++++++.+++++.++++++.+++++.++++++.+++++.++,@@@                                               ",
"                                            @@/..........................{@@<..-)@(.&~@@@@@@@@@@@6.+............+............+............+.....'@@                                                ",
"                                            @@)|........++...........++..6@@-..[@@6#,=@@@@@@@@@~d'+.......+....+.....'8a....+.......+....+......|@@                                                ",
"                                             @@7#..........+............+7@@3-':@@@:5@@@2-,;^;,+.....................(@=&.......................0@@                                                ",
"                                             @@@e+.++.+..+++..+.++.+..+++8@@@@@@@@@@@@@>'.+..+...+.+.+.+..+...+.+.+.++-^...+.+.+.+..+...+.+.+.++{@@                                                ",
"                                              @@=;.++++.+++++.+.++++.++++$f@@@@@@@@@@@@{+.++.+.+++++.+.++.+.+++++.+.++.+.+++++.+.++.+.+++++.+.+-%@@                                                ",
"                                               @@4++++++++++++++++++++++++'7@@@:/2@@@@@]++++++++.++++++++++++.++++++++++++.++++++++++++.+++++++2@@                                                 ",
"                                               @@@<........................#a<|+.+[=@=8+...........................&$.........................e@@@                                                 ",
"                                                @@!b...............................&'&............................1=!d+......................-*@@                                                  ",
"                                                 @@}^.+..+.+++..++.+..+.+++..++.+..+..++....+..+...++....+..+...++1)@@|..+...++....+..+...++&6@@                                                   ",
"                                                  @@~^+.++.++...++.+.++.++...++.+.++..+....+++.+...+....+++.+...+.+|9]++.+...+....+++.+...++/@@                                                    ",
"                                                  @@@}|....++....+.+....++....+.+.......+.++.+.+.....+.++.+.+.....+.++.+.+.....+.++.+.+....e@@@                                                    ",
"                                                   @@@>1++++.++++++++++++.++++++++++++++++++++++++++++++++++++++++++++++++++++++++++++++++]%@@                                                     ",
"                                                    @@@@_#+++++++++++++++++++++++++++++++.++++++.+++++.++++++.+++++.++++++.+++++.++++++.+b=@@                                                      ",
"                                                     @@@@{#...........................+............+............+............+..........a*@@                                                       ",
"                                                      @@@@4$.........++...........++.+.......+....+.......+....+......;/d-..+.......+.+8)@@                                                        ",
"                                                        @@@:|...........+.............................................4@@3...........$3@@@                                                         ",
"                                                         @@@){-+++.+..+++..+.++.+..++.+.+.+..+...+.+.+.+..+...+.+.+.+.|dd'.+.+.+.+..|5@@@                                                          ",
"                                                          @@@@)4]+++.+++++.+.++++.+++++.+.++.+.+++++.+.++.+.+++++.+.++.+.+++++.+.+&8%@@@                                                           ",
"                                                            @@@@@f<,++++++++++++++++++++++++++++.++++++++++++.++++++++++++.++++++1:@@@@                                                            ",
"                                                              @@@@@*h]&.......................................................#1g@@@@@                                                             ",
"                                                                @@@@@@=481;+...................................$]b,........,]c~@@@@@                                                               ",
"                                                                 @@@@@@@@@@~ha,.+..+..++....+..+...++....+..+.,~@@%:23{{325%@@@@@@                                                                 ",
"                                                                   @@@@@@@@@@@!g8b&+..+....+++.+...+'18{48#.+.0@@@@@@@@@@@@@@@@@                                                                   ",
"                                                                    @@@@@@@@@@@@@@@**:ha;#++.+,b<dg=@@@@@@1.+.8@@@@@@@@@@@@@@@                                                                     ",
"                                                                    @@@@@@@@@@@@@@@@@@@@@*566})@@@@@@@@@@@_+++9@@@@@@@@@                                                                           ",
"                                                                    @@@8;f@@@@@@@@@@@@@@@@@@@@@@@@@@@@@@@@/++.(@@@                                                                                 ",
"                                                                    @@{+.3@@        @@@@@@@@@@@@        @@h...]@@@                                                                                 ",
"                                                                    @%^.+5@@                            @@{...|@@@                                                                                 ",
"                                                                    @3+.|@@@                            @@h...^@@@                                                                                 ",
"                                                                   @@1++c@@@                            @@h...;@@@                                                                                 ",
"                                                                   @*$++5@@                             @@/.++-@@@                                                                                 ",
"                                                                  @@4++;@@@                  @@         @@d++.1@@                                                                                  ",
"                                                                  @@<..1@@@                @@@@@@@      @@/...<@@                                                                                  ",
"                                                    @             @@^../@@                 @@@@6:@@@@@@@@@3..._@@                                                                                  ",
"                                                  @@@@@@         @@5+.'*@@                 @@@@'+(}@@@@@@@2.+.d@@                                                                                  ",
"                                                  @@@@)@@@       @@d.+8@@@                  @@@-..'4@@@@@@4.+./@@                                                                                  ",
"                                                  @@@d+1}@@      @@]..7@@                    @@d+..+0=@@@@_.+.d@@                                                                                  ",
"                                                   @@a++^f@@    @@=&+,%@@                    @@)1++++'c~%7'+++8@@                                                                                  ",
"                                                   @@c+++,2@@@@@@@/++0@@                      @@!a++++.+$++++.0@@                                                                                  ",
"                                                    @!|...&{@@@@@@]..2@@                       @@)8+..........a@@                                                                                  ",
"                                                    @@5'++.#c@@@@:+.^)@                         @@@3$.....+...(@@                                                                                  ",
"                                                     @@f'..++0*@@1..c@@                          @@@f^........8@@                                                                                  ",
"                                                      @@:;++..^_a+.,=@@                           @@@=1+..+.../@@                                                                                  ",
"                                                       @@~|++.+.+++8@@                             @@@@h'.+.++g@@                                                                                  ",
"                                                        @@*0++++++'=@@                               @@@}(+++,!@@                                                                                  ",
"                                                         @@@/#...+{@@                                  @@@7(b4@@@                                                                                  ",
"                                                          @@@3$.+8@@@                                   @@@@@@@@@                                                                                  ",
"                                                           @@@5_4@@@                                      @@@@@@                                                                                   ",
"                                                             @@@@@@                                         @@@                                                                                    ",
"                                                              @@@@                                                                                                                                 ",
"                                                                                                                                                                                                   "};
